^C:\USERS\АНДРЕЙ\SOURCE\REPOS\CONSOLEAPPLICATION3\CONSOLEAPPLICATION3\DEBUG\CONSOLEAPPLICATION3.OBJ
C:\USERS\андрей\SOURCE\REPOS\CONSOLEAPPLICATION3\DEBUG\CONSOLEAPPLICATION3.EXE
C:\USERS\андрей\SOURCE\REPOS\CONSOLEAPPLICATION3\CONSOLEAPPLICATION3\DEBUG\CONSOLEAPPLICATION3.ILK
C:\USERS\АНДРЕЙ\SOURCE\REPOS\CONSOLEAPPLICATION3\DEBUG\CONSOLEAPPLICATION3.PDB
